Using multiple imputation with regmedint
…
                  m_cde = 1,
                  c_cond = 0.5,
                  ## Model types
                  mreg = "logistic",
                  yreg = "survAFT_weibull",
                  ## Additional specification
                  interaction = TRUE,
                  casecontrol = FALSE)
    })) %>%
    ## Extract point estimates and variance estimates
    mutate(coef_fit = map(fit, coef),
           vcov_fit = map(fit, vcov))
vv2015_mice_regmedint

## # A tibble: 50 x 5
## # Groups:   .imp [50]
##     .imp data                   fit            coef_fit  vcov_fit         
##    <int> <list>                 <list>         <list>    <list>           
##  1     1 <tibble[,7] [100 × 7]> <regmednt [4]> <dbl [7]> <dbl[,7] [7 × 7]>
##  2     2 <tibble[,7] [100 × 7]> <regmednt [4]> <dbl [7]> <dbl[,7] [7 × 7]>
##  3     3 <tibble[,7] [100 × 7]> <regmednt [4]> <dbl [7]> <dbl[,7] [7 × 7]>
##  4     4 <tibble[,7] [100 × 7]> <regmednt [4]> <dbl [7]> <dbl[,7] [7 × 7]>
##  5     5 <tibble[,7] [100 × 7]> <regmednt [4]> <dbl [7]> <dbl[,7] [7 × 7]>
##  6     6 <tibble[,7] [100 × 7]> <regmednt [4]> <dbl [7]> <dbl[,7] [7 × 7]>
##  7     7 <tibble[,7] [100 × 7]> <regmednt [4]> <dbl [7]> <dbl[,7] [7 × 7]>
##  8     8 <tibble[,7] [100 × 7]> <regmednt [4]> <dbl [7]> <dbl[,7] [7 × 7]>
##  9     9 <tibble[,7] [100 × 7]> <regmednt [4]> <dbl [7]> <dbl[,7] [7 × 7]>
## 10    10 <tibble[,7] [100 × 7]> <regmednt [4]> <dbl [7]> <dbl[,7] [7 × 7]>
## # … with 40 more rows
…
